{
  "content": [
    {
      "name": "ΚΑΘΑΡΗ ΕΣΩΤΕΡΙΚΗ ΑΞΙΑ ΜΕΤΟΧΗΣ",
      "nameEnglish": "NET ASSET VALUE",
      "transactionDate": null,
      "regulatedListing": false,
      "versionContent": null,
      "translationVersionContent": "<p style=\"text-align: center; \">ANNOUNCEMENT</p><p>Please find below the net asset value per share after the deduction of all expenses and tax provisions as at 31 January 2024:</p><p>Net asset value (EURO)&nbsp; &nbsp; &nbsp;0.0307</p>",
      "companyId": 1683,
      "listedCompanyName": "ACTIBOND GROWTH FUND PUBLIC COMPANY LTD",
      "listedCompanyEnglish": "ACTIBOND GROWTH FUND PUBLIC COMPANY LTD",
      "id": 211783,
      "code": "AN_2689",
      "industriesName": "0030-Financials",
      "industriesDescription": "0030-Financials",
      "isListed": true,
      "securityCodesName": "ACTIBOND GROWTH FUND PUBLIC COMPANY LTD ",
      "securityCodeId": 672,
      "securityCodesNameEnglish": "ACTIBOND GROWTH FUND PUBLIC COMPANY LTD",
      "securityCodesCode": "ΑΚΕΠ",
      "publicationTimestamp": 1707122178000,
      "translationRegistryTimestamp": 1707389300000,
      "publicationTimestampUntil": null,
      "infoCategoriesName": "Καθαρή Εσωτερική Αξία / Net Asset Value",
      "infoCategoriesNameEnglish": "Net Asset Value",
      "infoLanguagesName": "Ελληνικά / Greek",
      "infoLanguagesNameEn": "Greek",
      "infoLanguagesNameDescription": null,
      "informationCategoryId": 38,
      "infoLanguagesId": null,
      "industriesId": 1563,
      "marketTypesName": "Ρυθμιζόμενη Αγορά / Regulated Market",
      "marketTypesDescription": "Regulated Market",
      "marketTypesId": 1,
      "keywords": null,
      "keywordsEnglish": null,
      "securityCodeTypesName": "Μετοχή / Stock",
      "securityCodeTypesDescription": null,
      "securityCodeTypesNameEnglish": "Stock",
      "referencedListingId": 0,
      "referencedListingCode": null,
      "translationId": 211833,
      "translationReferencedListingId": 0,
      "listingVersionTypeNameGr": "Αρχική Έκδοση / Initial Version",
      "listingVersionTypeNameEn": null,
      "translationCode": "ANE_2689",
      "translationLanguageNameGr": "Αγγλικά / English",
      "translationLanguageNameEn": "English",
      "translationCorrectedByListingId": 0,
      "translationCorrectedByListingName": null,
      "correctedByListingId": 0,
      "correctedByListingName": null,
      "translationReferencedListingCode": null,
      "listed": true,
      "listedComplete": true,
      "companyNameGr": "ACTIBOND GROWTH FUND PUBLIC COMPANY LTD",
      "companyNameEn": "ACTIBOND GROWTH FUND PUBLIC COMPANY LTD"
    },
    {
      "name": "Appointment of New Director",
      "nameEnglish": "Appointment of New Director",
      "transactionDate": null,
      "regulatedListing": false,
      "versionContent": null,
      "translationVersionContent": null,
      "companyId": 1822,
      "listedCompanyName": "BANK OF CYPRUS HOLDINGS PLC ",
      "listedCompanyEnglish": "BANK OF CYPRUS HOLDINGS PLC ",
      "id": 217781,
      "code": "ANE_6304",
      "industriesName": "0030-Financials",
      "industriesDescription": "0030-Financials",
      "isListed": true,
      "securityCodesName": "Bank of Cyprus Holdings Plc",
      "securityCodeId": 1110,
      "securityCodesNameEnglish": "Bank of Cyprus Holdings Plc",
      "securityCodesCode": "ΤΡΚΗ",
      "publicationTimestamp": 1743431766000,
      "translationRegistryTimestamp": 1743431766000,
      "publicationTimestampUntil": null,
      "infoCategoriesName": "Αλλαγή στη σύνθεση Διοικητικών Συμβούλων/ανώτατων στελεχών (Διορισμοί/Παραιτήσεις) / Change of Composition of Directors - Senior Directors",
      "infoCategoriesNameEnglish": "Change of Composition of Directors - Senior Directors",
      "infoLanguagesName": "Αγγλικά / English",
      "infoLanguagesNameEn": "English",
      "infoLanguagesNameDescription": null,
      "informationCategoryId": 31,
      "infoLanguagesId": null,
      "industriesId": 1563,
      "marketTypesName": "Ρυθμιζόμενη Αγορά / Regulated Market",
      "marketTypesDescription": "Regulated Market",
      "marketTypesId": 1,
      "keywords": null,
      "keywordsEnglish": null,
      "securityCodeTypesName": "Μετοχή / Stock",
      "securityCodeTypesDescription": null,
      "securityCodeTypesNameEnglish": "Stock",
      "referencedListingId": 0,
      "referencedListingCode": null,
      "translationId": 0,
      "translationReferencedListingId": 0,
      "listingVersionTypeNameGr": "Αρχική Έκδοση / Initial Version",
      "listingVersionTypeNameEn": null,
      "translationCode": "ANE_6304",
      "translationLanguageNameGr": null,
      "translationLanguageNameEn": null,
      "translationCorrectedByListingId": 0,
      "translationCorrectedByListingName": null,
      "correctedByListingId": 0,
      "correctedByListingName": null,
      "translationReferencedListingCode": null,
      "listed": true,
      "listedComplete": true,
      "companyNameGr": "BANK OF CYPRUS HOLDINGS PLC ",
      "companyNameEn": "BANK OF CYPRUS HOLDINGS PLC "
    },
    {
      "name": "Ανακοίνωση Louis plc 13 Απριλίου 2023",
      "nameEnglish": "Announcement Louis plc 13 April 2023",
      "transactionDate": null,
      "regulatedListing": false,
      "versionContent": "<p>Ανακοίνωση Louis plc 13 Απριλίου 2023</p>",
      "translationVersionContent": "<p><b>Louis plc - Meeting of the Board of Directors</b></p><p>Nicosia, 13 April 2023</p><p>Louis plc wishes to announce that its Board of Directors will meet on 27 April 2023 to examine, inter alia, the audited financial statements and the annual report for the year ended 31 December 2022.&nbsp;</p>",
      "companyId": 1635,
      "listedCompanyName": "LOUIS PLC",
      "listedCompanyEnglish": "LOUIS PLC",
      "id": 207076,
      "code": "AN_100",
      "industriesName": "0040 Consumer Discretionary",
      "industriesDescription": "0040 Consumer Discretionary",
      "isListed": true,
      "securityCodesName": "LOUIS PLC ",
      "securityCodeId": 784,
      "securityCodesNameEnglish": "LOUIS PLC",
      "securityCodesCode": "ΛΟΥΗ",
      "publicationTimestamp": 1681363882000,
      "translationRegistryTimestamp": 1681878789000,
      "publicationTimestampUntil": null,
      "infoCategoriesName": "Άλλες Εμπιστευτικές Πληροφορίες (Ουσιώδης Πληροφορία/ Μείζων Εξέλιξη) / Other Inside Information",
      "infoCategoriesNameEnglish": "Other Inside Information",
      "infoLanguagesName": "Ελληνικά / Greek",
      "infoLanguagesNameEn": "Greek",
      "infoLanguagesNameDescription": null,
      "informationCategoryId": 33,
      "infoLanguagesId": null,
      "industriesId": 1562,
      "marketTypesName": "Ρυθμιζόμενη Αγορά / Regulated Market",
      "marketTypesDescription": "Regulated Market",
      "marketTypesId": 1,
      "keywords": null,
      "keywordsEnglish": null,
      "securityCodeTypesName": "Μετοχή / Stock",
      "securityCodeTypesDescription": null,
      "securityCodeTypesNameEnglish": "Stock",
      "referencedListingId": 0,
      "referencedListingCode": null,
      "translationId": 207114,
      "translationReferencedListingId": 0,
      "listingVersionTypeNameGr": "Αρχική Έκδοση / Initial Version",
      "listingVersionTypeNameEn": null,
      "translationCode": "ANE_100",
      "translationLanguageNameGr": "Αγγλικά / English",
      "translationLanguageNameEn": "English",
      "translationCorrectedByListingId": 0,
      "translationCorrectedByListingName": null,
      "correctedByListingId": 0,
      "correctedByListingName": null,
      "translationReferencedListingCode": null,
      "listed": true,
      "listedComplete": true,
      "companyNameGr": "LOUIS PLC",
      "companyNameEn": "LOUIS PLC"
    }
  ],
  "pageable": {
    "sort": {
      "sorted": true,
      "unsorted": false,
      "empty": false
    },
    "pageNumber": 0,
    "pageSize": 3,
    "offset": 0,
    "paged": true,
    "unpaged": false
  },
  "last": false,
  "totalPages": 22729,
  "totalElements": 68186,
  "sort": {
    "sorted": true,
    "unsorted": false,
    "empty": false
  },
  "numberOfElements": 3,
  "first": true,
  "size": 3,
  "number": 0,
  "empty": false
}
